…
```r
OccupationCount
```

```
## # A tibble: 617 x 2
##                             Occupation     n
##                                  <chr> <int>
##  1 'Utterlyshiftlessartsstudent'...atp     1
##  2                                 abc     1
##  3                          Accountant     2
##  4                          Accounting     2
##  5                 AccountingAssistant     1
##  6                   AccountingManager     2
##  7                      AccountManager     1
##  8                      accountplanner     1
##  9                   AccountServiceRep     1
## 10                     AccountsPayable     1
## # ... with 607 more rows
```
…
```
## The following objects are masked _by_ .GlobalEnv:
## 
##     Country, HDI
```

```r
 dfTempCounts %>% select(Country) %>% group_by(Country) %>% 
  dplyr::summarise(Participant_Count = n()) %>% 
  plyr::arrange(desc(Participant_Count))
```

```
## # A tibble: 81 x 2
##          Country Participant_Count
##            <chr>             <int>
##  1  UnitedStates              2767
##  2        Canada               243
##  3 UnitedKingdom               177
##  4     Australia                99
##  5         India                78
##  6         Italy                60
##  7       Germany                36
##  8        Brazil                20
##  9       Ireland                19
## 10        Israel                19
## # ... with 71 more rows
```
…
